…
    ## Rows: 52179 Columns: 12
    ## ── Column specification ────────────────────────────────────────────────────────
    ## Delimiter: ","
    ## chr (9): uid, victim_last, victim_first, victim_race, victim_age, victim_sex...
    ## dbl (3): reported_date, lat, lon
    ## 
    ## ℹ Use `spec()` to retrieve the full column specification for this data.
    ## ℹ Specify the column types or set `show_col_types = FALSE` to quiet this message.

``` r
homicide_df
```

    ## # A tibble: 52,179 × 12
    ##    uid       repor…¹ victi…² victi…³ victi…⁴ victi…⁵ victi…⁶   lat   lon dispo…⁷
    ##    <chr>       <dbl> <chr>   <chr>   <chr>   <chr>   <chr>   <dbl> <dbl> <chr>  
    ##  1 Alb-0000…  2.01e7 GARCIA  JUAN    Hispan… 78      Male     35.1 -107. Closed…
    ##  2 Alb-0000…  2.01e7 MONTOYA CAMERON Hispan… 17      Male     35.1 -107. Closed…
    ##  3 Alb-0000…  2.01e7 SATTER… VIVIANA White   15      Female   35.1 -107. Closed…
    ##  4 Alb-0000…  2.01e7 MENDIO… CARLOS  Hispan… 32      Male     35.1 -107. Closed…
    ##  5 Alb-0000…  2.01e7 MULA    VIVIAN  White   72      Female   35.1 -107. Closed…
    ##  6 Alb-0000…  2.01e7 BOOK    GERALD… White   91      Female   35.2 -107. Open/N…
    ##  7 Alb-0000…  2.01e7 MALDON… DAVID   Hispan… 52      Male     35.1 -107. Closed…
    ##  8 Alb-0000…  2.01e7 MALDON… CONNIE  Hispan… 52      Female   35.1 -107. Closed…
    ##  9 Alb-0000…  2.01e7 MARTIN… GUSTAVO White   56      Male     35.1 -107. Open/N…
    ## 10 Alb-0000…  2.01e7 HERRERA ISRAEL  Hispan… 43      Male     35.1 -107. Open/N…
    ## # … with 52,169 more rows, 2 more variables: city_state <chr>,
    ## #   homicide_situation <chr>, and abbreviated variable names ¹​reported_date,
    ## #   ²​victim_last, ³​victim_first, ⁴​victim_race, ⁵​victim_age, ⁶​victim_sex,
    ## #   ⁷​disposition

##### Find total number of homicides by cities and total number of unsolved homicides by cities.

``` r
homicide_number = 
  homicide_df %>% 
  group_by(city_state) %>% 
  summarize(total_homicide = n(),
            total_homicide_unsolved = sum(homicide_situation == "unsolved"))

homicide_number
```

    ## # A tibble: 50 × 3
    ##    city_state      total_homicide total_homicide_unsolved
    ##    <chr>                    <int>                   <int>
    ##  1 Albuquerque, NM            378                     146
    ##  2 Atlanta, GA                973                     373
    ##  3 Baltimore, MD             2827                    1825
    ##  4 Baton Rouge, LA            424                     196
    ##  5 Birmingham, AL             800                     347
    ##  6 Boston, MA                 614                     310
    ##  7 Buffalo, NY                521                     319
    ##  8 Charlotte, NC              687                     206
    ##  9 Chicago, IL               5535                    4073
    ## 10 Cincinnati, OH             694                     309
    ## # … with 40 more rows
…
``` r
each_cities = 
  homicide_number %>% 
  mutate(prop_cities = map2(.x = total_homicide_unsolved, .y = total_homicide, ~prop.test(x = .x, n = .y)),
         tidy_cities = map(.x = prop_cities, ~ broom::tidy(.x))) %>% 
  unnest(tidy_cities) %>% 
  select(city_state, estimate, conf.low, conf.high) %>% 
  janitor::clean_names() 
  

each_cities
```

    ## # A tibble: 50 × 4
    ##    city_state      estimate conf_low conf_high
    ##    <chr>              <dbl>    <dbl>     <dbl>
    ##  1 Albuquerque, NM    0.386    0.337     0.438
    ##  2 Atlanta, GA        0.383    0.353     0.415
    ##  3 Baltimore, MD      0.646    0.628     0.663
    ##  4 Baton Rouge, LA    0.462    0.414     0.511
    ##  5 Birmingham, AL     0.434    0.399     0.469
    ##  6 Boston, MA         0.505    0.465     0.545
    ##  7 Buffalo, NY        0.612    0.569     0.654
    ##  8 Charlotte, NC      0.300    0.266     0.336
    ##  9 Chicago, IL        0.736    0.724     0.747
    ## 10 Cincinnati, OH     0.445    0.408     0.483
    ## # … with 40 more rows
…
#### Test mean = 0

``` r
norm_results_0 = 
  expand_grid(n = 30, 
              mu = 0, 
              sigma = 5,
              iteration = 1:100) %>% 
  mutate(estimate_df = map(mu, ~norm_mean_p(mu=.x))) %>% 
  unnest(estimate_df)

norm_results_0
```

    ## # A tibble: 100 × 12
    ##        n    mu sigma iteration estimate statis…¹ p.value param…² conf.…³ conf.…⁴
    ##    <dbl> <dbl> <dbl>     <int>    <dbl>    <dbl>   <dbl>   <dbl>   <dbl>   <dbl>
    ##  1    30     0     5         1   0.491    0.664   0.512       29  -1.02    2.00 
    ##  2    30     0     5         2  -0.173   -0.244   0.809       29  -1.62    1.28 
    ##  3    30     0     5         3  -0.186   -0.203   0.841       29  -2.06    1.69 
    ##  4    30     0     5         4   2.52     2.70    0.0114      29   0.611   4.42 
    ##  5    30     0     5         5   0.0213   0.0226  0.982       29  -1.90    1.94 
    ##  6    30     0     5         6  -0.651   -0.572   0.572       29  -2.98    1.67 
    ##  7    30     0     5         7  -1.32    -1.54    0.135       29  -3.07    0.436
    ##  8    30     0     5         8  -1.11    -1.27    0.213       29  -2.90    0.675
    ##  9    30     0     5         9   0.442    0.442   0.662       29  -1.61    2.49 
    ## 10    30     0     5        10   0.976    1.00    0.326       29  -1.02    2.97 
    ## # … with 90 more rows, 2 more variables: method <chr>, alternative <chr>, and
    ## #   abbreviated variable names ¹​statistic, ²​parameter, ³​conf.low, ⁴​conf.high
#### Test mu = {1,2,3,4,5,6}

``` r
norm_results = 
  expand_grid(n = 30, 
              mu = c(1,2,3,4,5,6),
              sigma = 5,
              iteration = 1:100) %>% 
  mutate(estimate_df = map(mu, ~norm_mean_p(mu=.x))) %>% 
  unnest(estimate_df)

norm_results
```

    ## # A tibble: 600 × 12
    ##        n    mu sigma iteration estimate statis…¹ p.value param…² conf.…³ conf.…⁴
    ##    <dbl> <dbl> <dbl>     <int>    <dbl>    <dbl>   <dbl>   <dbl>   <dbl>   <dbl>
    ##  1    30     1     5         1    0.857    1.32   0.198       29  -0.473    2.19
    ##  2    30     1     5         2    1.51     1.65   0.111       29  -0.367    3.39
    ##  3    30     1     5         3    2.26     2.47   0.0194      29   0.392    4.12
    ##  4    30     1     5         4    0.727    0.762  0.452       29  -1.22     2.68
    ##  5    30     1     5         5    1.84     2.52   0.0177      29   0.343    3.33
    ##  6    30     1     5         6    1.57     1.44   0.160       29  -0.654    3.79
    ##  7    30     1     5         7    1.36     1.60   0.120       29  -0.379    3.10
    ##  8    30     1     5         8    0.858    0.825  0.416       29  -1.27     2.98
    ##  9    30     1     5         9    0.236    0.234  0.817       29  -1.83     2.30
    ## 10    30     1     5        10    0.156    0.227  0.822       29  -1.24     1.56
    ## # … with 590 more rows, 2 more variables: method <chr>, alternative <chr>, and
    ## #   abbreviated variable names ¹​statistic, ²​parameter, ³​conf.low, ⁴​conf.high
…
